id_str;text;source;lokasi
1109476800466280448;@FirstMediaCares 10440823 tulisannya begini di channel tvrinya;Twitter for iPhone
1109476893114327040;@FirstMediaCares enggak bisa dm nih;Twitter for iPhone;
1109476989159657472;@FirstMediaCares 10552870 tuh nomor idnya;Twitter for iPhone;
1109477093753012225;@2xnomomo  Selamat Malam First People, mohon maaf atas ketidaknyamanannya. Saat ini area masih alami gangguan dengan estimasi waktu perbaikan diperkirakan 24 Maret 2019 di pukul 04:47 wib. Info lebih lanjut bisa cek di. Terima kasih ^klf;FirstMedia Social Media Services;
1109477190364651525;@FirstMediaCares kak tolong di balas secepatnya dong ini sudah mau setengah hari tapi enggak bisa-bisa;Twitter for iPhone;
1109478146837876739;@FirstMediaCares setiap hari sekali tidak ada koneksi 3-6jam,Setiap Hari. oke! Ini sehari 2 kali tidak ada koneksi! Yang saya bingung enggak bisa di perbaikin sampai segitu nya? Sampah banget pelayanan nya! balasannya dari FM paling-paling cuman mohon maaf atas ketidak nyamanan nya! Ini bukan cuman enggak nyaman. Tapi merugikan!;Twitter for iPhone;
1109478383262457856;@FirstMediaCares Itu username apa yah?;Twitter for Android;
1109478704797761536;@FirstMediaCares Masa setiap hari harus pelanggan yang dong mikir! bagaimana cara nya ngasih fasilitas yang sesuai harga! Jangan fasilitas seperti Tai! Tiap hari secara acak pasti tidak ada koneksi! Kalau tidak ada koneksi cuman 1 jam saya maklum tapi enggak tiap hari juga kali!;Twitter for iPhone;
1109478934779817984;firstmedia klo malem suka putus nyambung wifinya.\nbelum lagi tengah malam tiba\u201d hilang wifinya tvnya juga ikutan jadi eror;Twitter for iPhone;
1109478987359674368;@rizkyanandaxx  Selamat malam First People, mohon maaf atas ketidaknyamanannya untuk modem sudah kami bantu refresh. Silahkan untuk di coba kembali dan agar mempermudah pengecekan status dan refresh layanan bisa diakses di website. Terima kasih ^klf;FirstMedia Social Media Services;
1109479398179131399;@FirstMediaCares oke terima kasih;Twitter for iPhone;
1109479517490339847;@FirstMediaCares nomor pelanggan 10213783 area semper barat dari tadi tidak ada koneksi dan sangat lambat, sudah di refresh pun tetap begitu;Twitter for Android;semper barat
1109479577439473664;@FirstMediaCares enggak bisa sekarang banget nih di reset dari sana atau bagaimana jaringannya? parah banget padahal pengen wifian;Twitter for iPhone;
1109479734289661953;@FirstMediaCares anda kira saya bayar tiap bulan bayaran perhari? Ini sudah sebulan seperti begini! Kita cuman bisa lapor,Anda cuman bisa minta maaf! Anda pikir saya bayar tiap bulan bayar bisa pakai  MOHON MAAF?!? KASIH TAHU ATASAN LU BIAR MIKIR!! Kasih SOLUSI BUKAN EMAIL \u201cMAAF\u201d doang! TAI! ;Twitter for iPhone;
1109479982223360000;@FirstMediaCares mohon info untuk wilayah telaga kahuripan internetnya gak bisa.lagi gangguan atau bagaimana ya.?;Twitter for iPhone;telaga kahuripan
1109481145513594881;@FirstMediaCares first media BANGSAT.sudah berapa kali nih error terus bangsat.saya sudah bayar mahal-mahal malah seperti begini pelayanannya bangsat;Twitter Web App;
1109481243832250368;@FirstMediaCares nomor pelanggan 77422101 internet tidak ada koneksi;Twitter for iPhone
1109481380411400192;@FirstMediaCares WEY BANGSAT GIMANA NIH AREA LAGOA ERROR TERUS BERAPA HARI INI.TEKNISI KALIAN TOLOL YAH tidak BISA PERBAIKI INI? GUA sUDAH BAYAR MAHAL MALAH PELAYANANNYA seperti beGINI TERUS BANGSAT;Twitter Web App;LAGOA
1109483011559481344;WEY BANGSAT KALIAN BANGKRUT APA? PELAYANAN KALIAN MAKIN HARI seperti BANGSAT AJA;Twitter Web App;
1109483779305816064;@FirstMediaCares FIRST MEDIA BANGSAT mEMANG.tidak JELAS LAMA-lama.TEKNISI KALIAN DATANG MALAH semakin tidak JELAS.BANGSAT LAH BUAT KALIAN;Twitter Web App;
1109483795214794752;@FirstMediaCares internet saya tidak ada koneksi dari jam 8an tadi. Kenapa sih ? Kalau saya cek di 192.168.0.1 kek enggak dapat IP ? Paling malas dah kalau liburan suka banget tidak ada koneksi. Sengaja banget ya;Twitter Web App;
1109484778334478338;@FirstMediaCares ANJING mEMANG KALIAN YAH.KAGAK JELAS PELAYANAN KALIAN LAMA-lama BANGSAT;Twitter Web App;
1109485911513821195;Seriusan dah, enggak becanda. Sinyal internet kamu lama lama minta diganti yaaa!!!! tidak usah bagus-bagus nawarin ganti paket kalau sinyal kamu aja suka error terus tiap bulan @FirstMediaCares;Twitter for iPhone;
1109486254729490432;@FirstMediaCares JADI BEGINI PELAYANAN KALIAN SAMA CUSTOMER SELAMA INI? BENaR-benar seperti BANGSAT DAH KALIAN;Twitter Web App;
1109486778652618753;@FirstMediaCares Tenang aja min, saya dan teman saya bulan ini sudah pada pindah ke sebelah kok lebih bagus dan murah;Twitter for Android;
1109488211280064512;oke terima kasih;Twitter for Android;
1109488406067724288;@FirstMediaCares payah nih kok gangguan terus. Saya daerah Pekayon seminggu ini sudah berapa kali gangguan.;Twitter for iPhone;Pekayon
1109490195974356992;@FirstMediaCares INI GIMaNA NIh ?? RIP 11088319 KONEKSI YA, MASA SAYA mengeluh terus.;UberSocial for Android;
1109491214993092608;@FirstMediaCares Masa Setiap Malam Saya Harus Minta Bantuan Direstart ?? Kalo pagi tidak ada masalah. Baik baik saja.;UberSocial for Android;
1109492372688113664;@FirstMediaCares hai, kenapa daerah rumah saya di Bintara, Bekasi Barat sering banget gangguan ya? Hampir sebulan sekali ada aja gangguan. Maaf saya sudah bayar mahal, tapi kenapa sering gangguan?;Twitter for Android;Bekasi Barat
1109492601982377984;@FirstMediaCares daerah kemanggisan kenapa tidak ada koneksi internet nih?;Twitter for iPhone;kemanggisan
1109493551123984386;@FirstMediaCares TERUS TADI TEKNISI KALIAN DATENG KE SINI BUAT BETULIN APA? CARI TEKNISI JANGAN YanG GOBLOK NAPA.CUSTOMER JADI RUGI.MANA SAYA BAYAR penuh TERUS.KALau PELAYANAN KALIAN seperti beGINI TERUS BeSOK TEKNISI KALIAN DATaNG KE RUMAH SAYA LAH.RUGI SAYA.;Twitter Web App;
1109494353859244033;@FirstMediaCares tolong di periksa ini kenapa tidak ada koneksi ya wifi nya 10667975;Twitter for iPhone;
1109494738552410112;@FirstMediaCares min ini kok jatah uploadnya loyo amat yaa id 11060297. Amat sangat mengganggu ini , indikator lan kedip terus. Main game jadi ping nya updown. Tolong lahhh;Twitter for Android;
1109495049560027136;@FirstMediaCares Jl. Mandor ancul. Pancoran mas, depok;Twitter for iPhone;depok
1109496820390981632;@FirstMediaCares pingnya gede terus sih setiap malam dah?;Twitter for Android;
1109497274051096576;@FirstMediaCares kenapa kalau tanggal 20-31 atau akhir bulan FM selalu jelek sinyalnya,tolong diperbaiki jaringan FM;;
1109685796653559808;PENANGANAN TERBURUK JATUH KEPADAAAAAA .... *jreng jreng jreng* @FirstMediaCares  YEAAAAYYY !! selamat yaaaa. Semoga\u2026 https:\/\/t.co\/ASyzPIRta5;;
110968602159824486;@FirstMediaCares Tolong jangan keseringan gangguan dong yang bener aja seminggu ini udah 3 kalo gangguan! Tolong se\u2026 https:\/\/t.co\/dfmNdPmZDs;;
1109686405989462017;@FirstMediaCares Mau sampai kapan ini benarnya?;;
1109686765189627904;@FirstMediaCares halo, tolong periksa nomor pelanggan 10326903;;
1109687976294907905;@galihrama25 Hi First People, saat ini area bapak\/ibu sedang mengalami problem gangguan jaringan, estimasi perbaika\u2026 https:\/\/t.co\/3J6PVnB5CI;;bekasi
1109688059077943303;@FirstMediaCares selamat siang, WIFI saya ada masalah sudah lebih dari 1 minggu saya harus hubungi kemana ya?;;
1109691145045499905;@FirstMediaCares seperti mau nyala gitu, tapi tidak ada koneksi lagi. Begitu terus kira-kira setiap 1 menit. https:\/\/t.co\/42PLJzIOem;;
1109695353626877952;@FirstMediaCares min... Internet jelambar tidak ada koneksi lagi???;;jakarta
1109695977990938625;@FirstMediaCares Nomor tersebut aktif kok min. Tgl 22 memang ada telepon dari 0813687105xx dan tidak ke angkat, karena sedan\u2026 https:\/\/t.co\/YwD7q7MKm4;;
1109696143250747394;Sumpahh yaa ini kenapa wifi lep lepan bgttt dari kemarin\", saya beraktivitas jadi galancar nih. Mohon diperbaiki jaringannya dongg @FirstMediaCares;;
1109697274236461058;@FirstMediaCares Sudah langsung koneksi ke PC tapi sama masih tidak ada koneksi;;
1109697711668781056;@FirstMediaCares Baik, terima kasih;;
1109698276662505472;"Ini firstmedia sepertinya direktur operationalnya harus legowo mengundurkan diri karena terlalu sering gangguan di seluruh wilayah yang langganan produk mereka, CATAT ya,  TERLALU SERING RUSAK. Dan itu hampir pasti saat akhir pekan rusaknya fyi @YLKI_ID @firstmediacares;;
1109698811985686529;@FirstMediaCares tidak ada koneksi LAGI;;
1109699048028557313;@FirstMediaCares Hallo, sudah restart copot kabel power dsb..\nGangguannya bukan satu channel saja tp semua channel tidak bisa.. \nmohon bantuannya kembali..;;
1109699482386485248;@FirstMediaCares  id 10236894. first media makin kacau aja semenjak awal 2019, saya langganan dari sekitar 2007\/2008. utk tahn ini sudah saya catat sebanyak 8 kali tidak ada koneksi. tgl 29 jan, 1 feb, 5 feb, 19 feb, 11-13 mar, 23 mar- sampai skrng 24 mar.;;
1109699842010312705;@Makong_09 @Makong_09 Hi First People, saat ini area TAMAN GALAXY INDAH sedang mengalami masalah gangguan jaringan, estimasi perbaikan 25-Mar-2019 \/ 14:33, kami infokan juga untuk cek jaringan dan pembayaran bisa dilihat disitus https:\/\/t.co\/h46Z2K7k7Z, mohon maaf, terima kasih. ^rau;;
1109700354147418112;@FirstMediaCares Ini sudah jam 1 tapi belum nyala juga kenapa lagi? Katanya jam 6 pagi sudah nyala;;
1109700636583424000;@FirstMediaCares saya bayar mahal loh, bayaran saya tiap bulan saya bayar 1 juta lebih!. rumah ada 2. dua rumah saya keluarin 2 juta lebih tiap bulan untuk firstmedia. pertanggung jawaban kalian gimana??;;
1109701139723763712;@FirstMediaCares sudah saya follow;;
1109701808069341186;@Makong_09 . Hi First people . Sudah kami bantu follow juga .Saat ini , area Bapak\/Ibu mengalami masalah jaringan First\u2026 https:\/\/t.co\/mTtY51pEtd;;
1109704149103308802;Dan error lagi.. bener2 SETIAP HARI, dan belum ada penagihan. Jadi. Saya tidak akan bayar https:\/\/t.co\/I2hBFqjhmT;;
1109704810821894146;@FirstMediaCares Pesan errornya sudah saya lampirkan ditweet saya yang pertama.. saya lampirkan lagi karena masih sama errornya.. https:\/\/t.co\/1oIlCLZ8A;;
1109705074870091776;@FirstMediaCares ini sampai sekarang belum nyala, loh. masa harus tunggu terus? enggak ada solusi lain?;;
110970549742524825;Halo @FirstMediaCares Nomor pelanggan 10643124 kok hanya dua lampu dari kiri saja ya yang nyala? Internet gak mau j\u2026 https:\/\/t.co\/G6397FFfut;;
1109707787825643520;\u2066@FirstMediaCares\u2069 sebulan mau tidak ada koneksi berapa kali ya ini. https:\/\/t.co\/Hg6CG02E6;;
1109707795396358145;@FirstMediaCares hello admin. Modem saya terkoneksi dengan pc sebelumnya. Namun pc nya rusak dan tidak akan dipakai\u2026 https:\/\/t.co\/jGfrBnwX3i;;
1109711739841449984;BISNIS ONLINE KOK PAKE INTERNET SIPUT, PASANG FIRSTMEDIA INTERNET BROADBAND SUPER CEPAT - INFO FIRSTMEDIAMLG https:\/\/t.co\/DivHR3Yffk;;
1109714685757022208;@FirstMediaCares SUdah seminggu nontonnya berita satu doang. Remote rusak enggak diganti-ganti. SUdah nelpon katanya mau\u2026 https:\/\/t.co\/Co8X2Enhek;;
1109714749426565121;@FirstMediaCares oi paket dlite tulisannya 12mbps tapi kok cuman dapet 6mbps di speedtest? jangan korupsi dong;;
1109715815325040640;@yashashiro Hi First People. Mohon dibantu koneksikan modem langsung ke 1 PC\/Laptop dgn kabel LAN. Lakukan tes speed\u2026 https:\/\/t.co\/ZJcI2JmYxS;;
1109716068816150528;@FirstMediaCares kenapa yaaa wifinya daerah jatinegara enggak bisa? tv cabelnya bisa tapi. udah hampir 2 hari enggak ada wifi;;jakarta timur
1109716120552931328;@hendryhart_ @FirstMediaCares enggak mau indi ahh enggak bisa netflix gua waktu itu;;
1109719119442505729;@FirstMediaCares @odimrf Id 104399078 Mohon di cek first media masih belum terkoneksi;;
1109719527565070338;@FirstMediaCares @FirstMediaWorld  lagi nonton TV tiba-tiba begini apa maksudnya? Matahari nya keluar dari jalur begitu?;;
1109720597079035904;@FirstMediaCares @odimrf Id 10439078 kenapa ya status di modem saya masih belum online;;
1109720646265638913;Min @FirstMediaCares nomor 10202074 koneksi terputus ya?;;
1109721395578044416; Halloooo kenapa sih selalu enggak bisa? Tolong cepat di perbaikin yak. @FirstMediaCares kenapa sih sering banget errorr;;
1109722142050942976;id pelanggan. 10439078 kenapa ya status modem masih offline padahal tagihannya sudah diselesaikan;;
1109722400503947265;@FirstMediaCares Maksudnya kenapa yak? Kok sampai nunggu;;
1109724337802665986;@FirstMediaCares Sudah hampir jam 15.00 teknisi belum datang juga..mohon perhatiannya, saya enggak ada waktu hanya tunggu teknisi datang..terima kasih;;
1109726035342295040;@inaya_widya aku 2 hari sih ini tapi tergantung kecepatan internet kita. Dulu aku pake indihome seminggu baru kelar pakai firstmedia cuma beberapa jam doang selesai;;
1109726965466959872;@FirstMediaCares masalah lagi? Kapan selesainya? Rugi dong pelanggan kalau masalah terus ini.;;
1109727038590509056;@FirstMediaCares @dwingh Oke terima kasih infonya. Boleh dijadwal ulang ke tanggal Rabu, 27 Maret?
1109727442678145025;@FirstMediaCares mana belum bisa di dm;;
1109727821809635330;@Shilacputry  Agar mempermudah pengecekan status dan refresh layanan bisa diakses di website\u2026 https:\/\/t.co\/2GWUj1HSra;;
1109728122394435584;@FirstMediaCares Min, kalau misal mau engak pake TV bisa? Saya kan pake paket D'lite jadi berapa yak bulanannya?;;
1109728965717946368;@G_Sinda Selamat sore First people, mohon maaf bu untuk hanya gunakan Internetnya saja mohon maaf tidak bisa ya bu karena untuk\u2026 https:\/\/t.co\/UzPppiUbjF;;
1109729801336549376;@FirstMediaCares mati terus jaringan, ini sudah dari jam 8 malam, gimana ini orang suruh nunggu terus. sUdah yang kesekian kali\u2026 https:\/\/t.co\/BQlw9QEKft;;
1109730564360134657;@FirstMediaCares Tapi saya dapat info kalau bisa berhenti sewa alat untuk TV. Apa benar?Kalau dari D'lite mau downgrade ke Family bisa? Prosedurnya bagaimana?;;
1109730871236427776;@Mamas_Interista Untuk informasi terakhir perihal gangguan jaringan bisa dicek melalui https:\/\/t.co\/h46Z2K7k7Z. Terima kasih. ^5HY;;
1109731024831799297;setiap akhir pekan tidak ada koneksi, mau lu apa sih?;;
1109731682490310656;@vforvraud Hi First People. Mohon maaf. Kami cek untuk area Bapak terpantau normal, mohon info yg bermasalah layana\u2026 https:\/\/t.co\/1uG8vhJUxz;;
1109731701863768070;@FirstMediaCares nomor Pelanggan 11080419 daerah padurenan bekasi dari pagi hingga saat ini tidak ada koneksi. Mohon segera diperbaiki.;;bekasi
1109731840397459456;@FirstMediaCares min ini tv sama internet dari pagi enggak bisa, bala banget sumpah gangguan hampir setiap hariiiii;;
1109732133310881795;@FirstMediaCares min tolong ya kenapa wifinya bermasalah ya min?;;
1109732954404642817;@FirstMediaCares min internet koneksinya tidak stabil terus nih, mana akhir pekan pula.;;
1109733126266208256;Internet yang lebih bagus daripada @FirstMediaCares kira-kira apa ya?;;
1109734121146744832;@FirstMediaCares Min, ini lampu yang nyala cuma 2 yang satunya kedap - kedip. Status di cek first media sih Online.\u2026 https:\/\/t.co\/hsCYvFkeii;;
1109734245814005760;@FirstMediaCares daerah jatiasih tidak ada koneksi down dari jumat malam;;
1109734692394139648;@FirstMediaCares tolong cek DM.;;
1109735330763005953;@Andiniputri_U @FirstMediaCares Semua server lagi bermasalah mba, mohon kesabarannya;;