tweet;liked;paket;lokasi
@FirstMediaCares 10440823 tulisannya begini di channel tvrinya;1;kosong;null
@FirstMediaCares enggak bisa dm nih;0;null;null
@2xnomomo  Selamat Malam First People, mohon maaf atas ketidaknyamanannya. Saat ini area masih alami gangguan dengan estimasi waktu perbaikan diperkirakan 24 Maret 2019 di pukul 04:47 wib. Info lebih lanjut bisa cek di. Terima kasih ^klf;1;null;null
@FirstMediaCares kak tolong di balas secepatnya dong ini sudah mau setengah hari tapi enggak bisa-bisa;0;null;null
@FirstMediaCares setiap hari sekali tidak ada koneksi 3-6jam,Setiap Hari. oke! Ini sehari 2 kali tidak ada koneksi! Yang saya bingung enggak bisa di perbaikin sampai segitu nya? Sampah banget pelayanan nya! balasannya dari FM paling-paling cuman mohon maaf atas ketidak nyamanan nya! Ini bukan cuman enggak nyaman. Tapi merugikan!;0;null;null
@FirstMediaCares Itu username apa yah?;1;null;null
@FirstMediaCares Masa setiap hari harus pelanggan yang dong mikir! bagaimana cara nya ngasih fasilitas yang sesuai harga! Jangan fasilitas seperti Tai! Tiap hari secara acak pasti tidak ada koneksi! Kalau tidak ada koneksi cuman 1 jam saya maklum tapi enggak tiap hari juga kali!;0;null;null
firstmedia klo malem suka putus nyambung wifinya.belum lagi tengah malam tibau201d hilang wifinya tvnya juga ikutan jadi eror;0;null;null
@rizkyanandaxx  Selamat malam First People, mohon maaf atas ketidaknyamanannya untuk modem sudah kami bantu refresh. Silahkan untuk di coba kembali dan agar mempermudah pengecekan status dan refresh layanan bisa diakses di website. Terima kasih ^klf;1;null;null
@FirstMediaCares oke terima kasih;1;null;null
@FirstMediaCares nomor pelanggan 10213783 area semper barat dari tadi tidak ada koneksi dan sangat lambat, sudah di refresh pun tetap begitu;0;null;jakarta utara
@FirstMediaCares enggak bisa sekarang banget nih di reset dari sana atau bagaimana jaringannya? parah banget padahal pengen wifian;0;null;null
@FirstMediaCares kalian kira saya bayar tiap bulan bayaran perhari? Ini sudah sebulan seperti begini! Kita cuman bisa lapor,Anda cuman bisa minta maaf! Anda pikir saya bayar tiap bulan bayar bisa pakai  MOHON MAAF?!? KASIH TAHU ATASAN LU BIAR MIKIR!! Kasih SOLUSI BUKAN EMAIL u201cMAAFu201d doang! TAI!;0;null;null
@FirstMediaCares mohon info untuk wilayah telaga kahuripan internetnya gak bisa.lagi gangguan atau bagaimana ya.?;0;null;bogor
@FirstMediaCares first media BANGSAT.sudah berapa kali nih error terus bangsat.saya sudah bayar mahal-mahal malah seperti begini pelayanannya bangsat;0;null;null
@FirstMediaCares nomor pelanggan 77422101 internet tidak ada koneksi;0;null;null
@FirstMediaCares WEY BANGSAT GIMANA NIH AREA LAGOA ERROR TERUS BERAPA HARI INI.TEKNISI KALIAN TOLOL YAH tidak BISA PERBAIKI INI? saya sUDAH BAYAR MAHAL MALAH PELAYANANNYA seperti beGINI TERUS BANGSAT WEY BANGSAT KALIAN BANGKRUT APA? PELAYANAN KALIAN MAKIN HARI seperti BANGSAT AJA;0;null;null
@FirstMediaCares FIRST MEDIA BANGSAT mEMANG.tidak JELAS LAMA-lama.TEKNISI KALIAN DATANG MALAH semakin tidak JELAS.BANGSAT LAH BUAT KALIAN;0;null;null
@FirstMediaCares internet saya tidak ada koneksi dari jam 8an tadi. Kenapa sih ? Kalau saya cek di 192.168.0.1 kek enggak dapat IP ? Paling malas dah kalau liburan suka banget tidak ada koneksi. Sengaja banget ya;0;null;null
@FirstMediaCares ANJING mEMANG KALIAN YAH.KAGAK JELAS PELAYANAN KALIAN LAMA-lama BANGSAT;0;null;null
Seriusan dah, enggak becanda. Sinyal internet kamu lama lama minta diganti yaaa!!!! tidak usah bagus-bagus nawarin ganti paket kalau sinyal kamu aja suka error terus tiap bulan @FirstMediaCares;0;null;null
@FirstMediaCares JADI BEGINI PELAYANAN KALIAN SAMA CUSTOMER SELAMA INI? BENaR-benar seperti BANGSAT DAH KALIAN;0;null;null
@FirstMediaCares Tenang aja min, saya dan teman saya bulan ini sudah pada pindah ke sebelah kok lebih bagus dan murah oke terima kasih;0;null;null
@FirstMediaCares payah nih kok gangguan terus. Saya daerah Pekayon seminggu ini sudah berapa kali gangguan.;0;null;bekasi
@FirstMediaCares INI GIMaNA NIh ?? RIP 11088319 KONEKSI YA, MASA SAYA mengeluh terus.;0;null;null
@FirstMediaCares Masa Setiap Malam Saya Harus Minta Bantuan Direstart ?? Kalo pagi tidak ada masalah. Baik baik saja.;0;null;null
@FirstMediaCares hai, kenapa daerah rumah saya di Bintara, Bekasi Barat sering banget gangguan ya? Hampir sebulan sekali ada aja gangguan. Maaf saya sudah bayar mahal, tapi kenapa sering gangguan?;0;null;bekasi
@FirstMediaCares daerah kemanggisan kenapa tidak ada koneksi internet nih?;0;null;jakarta barat
@FirstMediaCares TERUS TADI TEKNISI KALIAN DATENG KE SINI BUAT BETULIN APA? CARI TEKNISI JANGAN YanG GOBLOK NAPA.CUSTOMER JADI RUGI.MANA SAYA BAYAR penuh TERUS.KALau PELAYANAN KALIAN seperti beGINI TERUS BeSOK TEKNISI KALIAN DATaNG KE RUMAH SAYA LAH.RUGI SAYA.;0;null;null
@FirstMediaCares tolong di periksa ini kenapa tidak ada koneksi ya wifi nya 10667975;0;null;null
@FirstMediaCares min ini kok jatah uploadnya loyo amat yaa id 11060297. Amat sangat mengganggu ini , indikator lan kedip terus. Main game jadi ping nya updown. Tolong lahhh;0;null;null
@FirstMediaCares Jl. Mandor ancul. Pancoran mas, depok;1;null;jakarta selatan
@FirstMediaCares pingnya gede terus sih setiap malam dah?;0;null;null
@FirstMediaCares kenapa kalau tanggal 20-31 atau akhir bulan FM selalu jelek sinyalnya,tolong diperbaiki jaringan FM;0;null;null
PENANGANAN TERBURUK JATUH KEPADAAAAAA .... *jreng jreng jreng* @FirstMediaCares  YEAAAAYYY !! selamat yaaaa. Semogau2026 https://t.co/ASyzPIRta5;0;null;null
@FirstMediaCares Tolong jangan keseringan gangguan dong yang bener aja seminggu ini udah 3 kalo gangguan! Tolong seu2026 https://t.co/dfmNdPmZDs;0;null;null
@FirstMediaCares Mau sampai kapan ini benarnya?;0;null;null
@FirstMediaCares halo, tolong periksa nomor pelanggan 10326903;1;null;null
@galihrama25 Hi First People, saat ini area bapak/ibu sedang mengalami problem gangguan jaringan, estimasi perbaikau2026 https://t.co/3J6PVnB5CI;1;null;null
@FirstMediaCares selamat siang, WIFI saya ada masalah sudah lebih dari 1 minggu saya harus hubungi kemana ya?;0;null;null
@FirstMediaCares seperti mau nyala gitu, tapi tidak ada koneksi lagi. Begitu terus kira-kira setiap 1 menit. https://t.co/42PLJzIOem;0;null;null
@FirstMediaCares min... Internet jelambar tidak ada koneksi lagi???;0;null;jakarta barat
@FirstMediaCares Nomor tersebut aktif kok min. Tgl 22 memang ada telepon dari 0813687105xx dan tidak ke angkat, karena sedanu2026 https://t.co/YwD7q7MKm4;1;null;null
Sumpahh yaa ini kenapa wifi lep lepan bgttt dari kemarin", saya beraktivitas jadi galancar nih. Mohon diperbaiki jaringannya dongg @FirstMediaCares;0;null;null
@FirstMediaCares Sudah langsung koneksi ke PC tapi sama masih tidak ada koneksi;0;null;null
@FirstMediaCares Baik, terima kasih;1;null;null
"Ini firstmedia sepertinya direktur operationalnya harus legowo mengundurkan diri karena terlalu sering gangguan di seluruh wilayah yang langganan produk mereka, CATAT ya,  TERLALU SERING RUSAK. Dan itu hampir pasti saat akhir pekan rusaknya fyi @YLKI_ID @firstmediacares;0;null;null
@FirstMediaCares tidak ada koneksi LAGI;0;null;null
@FirstMediaCares Hallo, sudah restart copot kabel power dsb..\ Gangguannya bukan satu channel saja tp semua channel tidak bisa.. \mohon bantuannya kembali..;1;null;null
@FirstMediaCares  id 10236894. first media makin kacau aja semenjak awal 2019, saya langganan dari sekitar 2007/2008. utk tahn ini sudah saya catat sebanyak 8 kali tidak ada koneksi. tgl 29 jan, 1 feb, 5 feb, 19 feb, 11-13 mar, 23 mar- sampai skrng 24 mar.;0;null;null
@Makong_09 @Makong_09 Hi First People, saat ini area TAMAN GALAXY INDAH sedang mengalami masalah gangguan jaringan, estimasi perbaikan 25-Mar-2019 / 14:33, kami infokan juga untuk cek jaringan dan pembayaran bisa dilihat disitus https://t.co/h46Z2K7k7Z, mohon maaf, terima kasih. ^rau;1;null;bekasi
@FirstMediaCares Ini sudah jam 1 tapi belum nyala juga kenapa lagi? Katanya jam 6 pagi sudah nyala;0;null;null
@FirstMediaCares saya bayar mahal loh, bayaran saya tiap bulan saya bayar 1 juta lebih!. rumah ada 2. dua rumah saya keluarin 2 juta lebih tiap bulan untuk firstmedia. pertanggung jawaban kalian gimana??;0;null;null
@FirstMediaCares sudah saya follow;1;null;null
@Makong_09 . Hi First people . Sudah kami bantu follow juga .Saat ini , area Bapak/Ibu mengalami masalah jaringan Firstu2026 https://t.co/mTtY51pEtd;1;null;null
Dan error lagi.. bener2 SETIAP HARI, dan belum ada penagihan. Jadi. Saya tidak akan bayar https://t.co/I2hBFqjhmT;0;null;null
@FirstMediaCares Pesan errornya sudah saya lampirkan ditweet saya yang pertama.. saya lampirkan lagi karena masih sama errornya.. https://t.co/1oIlCLZ8A;0;null;null
@FirstMediaCares ini sampai sekarang belum nyala, loh. masa harus tunggu terus? enggak ada solusi lain?;0;null;null
Halo @FirstMediaCares Nomor pelanggan 10643124 kok hanya dua lampu dari kiri saja ya yang nyala? Internet gak mau ju2026 https://t.co/G6397FFfut;0;null;null
u2066@FirstMediaCaresu2069 sebulan mau tidak ada koneksi berapa kali ya ini. https://t.co/Hg6CG02E6;0;null;null
@FirstMediaCares hello admin. Modem saya terkoneksi dengan pc sebelumnya. Namun pc nya rusak dan tidak akan dipakaiu2026 https://t.co/jGfrBnwX3i;0;null;null
BISNIS ONLINE KOK PAKE INTERNET SIPUT, PASANG FIRSTMEDIA INTERNET BROADBAND SUPER CEPAT - INFO FIRSTMEDIAMLG https://t.co/DivHR3Yffk;0;null;null
@FirstMediaCares SUdah seminggu nontonnya berita satu doang. Remote rusak enggak diganti-ganti. SUdah nelpon katanya mauu2026 https://t.co/Co8X2Enhek;0;null;null
@FirstMediaCares oi paket dlite tulisannya 12mbps tapi kok cuman dapet 6mbps di speedtest? jangan korupsi dong;0;dlite;null
@yashashiro Hi First People. Mohon dibantu koneksikan modem langsung ke 1 PC/Laptop dgn kabel LAN. Lakukan tes speedu2026 https://t.co/ZJcI2JmYxS;1;null;null
@FirstMediaCares kenapa yaaa wifinya daerah jatinegara enggak bisa? tv cabelnya bisa tapi. udah hampir 2 hari enggak ada wifi;0;null;jakarta timur
@hendryhart_ @FirstMediaCares enggak mau indi ahh enggak bisa netflix saya waktu itu;1;null;null
@FirstMediaCares @odimrf Id 104399078 Mohon di cek first media masih belum terkoneksi;0;null;null
@FirstMediaCares @FirstMediaWorld  lagi nonton TV tiba-tiba begini apa maksudnya? Matahari nya keluar dari jalur begitu?;0;null;null
@FirstMediaCares @odimrf Id 10439078 kenapa ya status di modem saya masih belum online;0;null;null
Min @FirstMediaCares nomor 10202074 koneksi terputus ya?;0;null;null
 Halloooo kenapa sih selalu enggak bisa? Tolong cepat di perbaikin yak. @FirstMediaCares kenapa sih sering banget errorr id pelanggan. 10439078 kenapa ya status modem masih offline padahal tagihannya sudah diselesaikan;0;null;null
@FirstMediaCares Maksudnya kenapa yak? Kok sampai nunggu;0;null;null
@FirstMediaCares Sudah hampir jam 15.00 teknisi belum datang juga..mohon perhatiannya, saya enggak ada waktu hanya tunggu teknisi datang..terima kasih;0;null;null
@inaya_widya aku 2 hari sih ini tapi tergantung kecepatan internet kita. Dulu aku pake indihome seminggu baru kelar pakai firstmedia cuma beberapa jam doang selesai;1;null;null
@FirstMediaCares masalah lagi? Kapan selesainya? Rugi dong pelanggan kalau masalah terus ini.;0;null;null
@FirstMediaCares @dwingh Oke terima kasih infonya. Boleh dijadwal ulang ke tanggal Rabu, 27 Maret?;1;null;null
@FirstMediaCares mana belum bisa di dm;0;null;null
@Shilacputry  Agar mempermudah pengecekan status dan refresh layanan bisa diakses di websiteu2026 https://t.co/2GWUj1HSra;1;null;null
@FirstMediaCares Min, kalau misal mau engak pake TV bisa? Saya kan pake paket D'lite jadi berapa yak bulanannya?;1;dlite;null
@G_Sinda Selamat sore First people, mohon maaf bu untuk hanya gunakan Internetnya saja mohon maaf tidak bisa ya bu karena untuku2026 https://t.co/UzPppiUbjF;1;null;null
@FirstMediaCares mati terus jaringan, ini sudah dari jam 8 malam, gimana ini orang suruh nunggu terus. sUdah yang kesekian kaliu2026 https://t.co/BQlw9QEKft;0;null;null
@FirstMediaCares Tapi saya dapat info kalau bisa berhenti sewa alat untuk TV. Apa benar?Kalau dari D'lite mau downgrade ke Family bisa? Prosedurnya bagaimana?;1;family;null
@Mamas_Interista Untuk informasi terakhir perihal gangguan jaringan bisa dicek melalui https://t.co/h46Z2K7k7Z. Terima kasih. ^5HY;1;null;null
setiap akhir pekan tidak ada koneksi, mau lu apa sih?;0;null;null
@vforvraud Hi First People. Mohon maaf. Kami cek untuk area Bapak terpantau normal, mohon info yg bermasalah layanau2026 https://t.co/1uG8vhJUxz;1;null;null
@FirstMediaCares nomor Pelanggan 11080419 daerah padurenan bekasi dari pagi hingga saat ini tidak ada koneksi. Mohon segera diperbaiki.;0;null;bekasi
@FirstMediaCares min ini tv sama internet dari pagi enggak bisa, bala banget sumpah gangguan hampir setiap hariiiii;0;null;null
@FirstMediaCares min tolong ya kenapa wifinya bermasalah ya min?;0;null;null
@FirstMediaCares min internet koneksinya tidak stabil terus nih, mana akhir pekan pula.;0;null;null
Internet yang lebih bagus daripada @FirstMediaCares kira-kira apa ya?;0;null;null
@FirstMediaCares Min, ini lampu yang nyala cuma 2 yang satunya kedap - kedip. Status di cek first media sih Online.u2026 https://t.co/hsCYvFkeii;0;null;null
@FirstMediaCares daerah jatiasih tidak ada koneksi down dari jumat malam;0;null;null
@FirstMediaCares tolong cek DM.;1;null;null
@Andiniputri_U @FirstMediaCares Semua server lagi bermasalah mba, mohon kesabarannya;1;null;null
Kok internetnya super lambat ya @FirstMediaCares https:\/\/t.co\/AKvs6dRjFJ;0;null;null
Cek dm @FirstMediaCares again;1;null;null
@FirstMediaCares gangguan lagi perbaikan jaringan lagi... Gilaaaak.. #2019GantiProvider;0;null;null
@FirstMediaCares Cek dm lagi.;1;null;null
@FirstMediaCares perumahan alinda sedang eror?;0;null;null